^C:\USERS\JIBBITYJOBBITY\DOCUMENTS\DX12FORCLASS02ARENA\DX12FORCLASS01\BITMAPREADER.CPP|C:\USERS\JIBBITYJOBBITY\DOCUMENTS\DX12FORCLASS02ARENA\DX12FORCLASS01\DX12FORCLASS01.CPP|C:\USERS\JIBBITYJOBBITY\DOCUMENTS\DX12FORCLASS02ARENA\DX12FORCLASS01\GRAPHICSDETAIL.CPP|C:\USERS\JIBBITYJOBBITY\DOCUMENTS\DX12FORCLASS02ARENA\DX12FORCLASS01\OBJREADER.CPP
C:\USERS\JIBBITYJOBBITY\DOCUMENTS\DX12FORCLASS02ARENA\DX12FORCLASS01\DEBUG\VC142.PDB
C:\USERS\JIBBITYJOBBITY\DOCUMENTS\DX12FORCLASS02ARENA\DX12FORCLASS01\DEBUG\VC142.IDB
C:\USERS\JIBBITYJOBBITY\DOCUMENTS\DX12FORCLASS02ARENA\DX12FORCLASS01\DEBUG\OBJREADER.OBJ
C:\USERS\JIBBITYJOBBITY\DOCUMENTS\DX12FORCLASS02ARENA\DX12FORCLASS01\DEBUG\GRAPHICSDETAIL.OBJ
C:\USERS\JIBBITYJOBBITY\DOCUMENTS\DX12FORCLASS02ARENA\DX12FORCLASS01\DEBUG\DX12FORCLASS01.OBJ
C:\USERS\JIBBITYJOBBITY\DOCUMENTS\DX12FORCLASS02ARENA\DX12FORCLASS01\DEBUG\BITMAPREADER.OBJ
^C:\USERS\JIBBITYJOBBITY\DOCUMENTS\DX12FORCLASS02ARENA\DX12FORCLASS01\BITMAPREADER.CPP
C:\USERS\JIBBITYJOBBITY\DOCUMENTS\DX12FORCLASS02ARENA\DX12FORCLASS01\DEBUG\VC142.PDB
^C:\USERS\JIBBITYJOBBITY\DOCUMENTS\DX12FORCLASS02ARENA\DX12FORCLASS01\GRAPHICSDETAIL.CPP
C:\USERS\JIBBITYJOBBITY\DOCUMENTS\DX12FORCLASS02ARENA\DX12FORCLASS01\DEBUG\VC142.PDB
^C:\USERS\JIBBITYJOBBITY\DOCUMENTS\DX12FORCLASS02ARENA\DX12FORCLASS01\OBJREADER.CPP
C:\USERS\JIBBITYJOBBITY\DOCUMENTS\DX12FORCLASS02ARENA\DX12FORCLASS01\DEBUG\VC142.PDB
^C:\USERS\JIBBITYJOBBITY\DOCUMENTS\DX12FORCLASS02ARENA\DX12FORCLASS01\DX12FORCLASS01.CPP
C:\USERS\JIBBITYJOBBITY\DOCUMENTS\DX12FORCLASS02ARENA\DX12FORCLASS01\DEBUG\VC142.PDB
C:\USERS\JIBBITYJOBBITY\DOCUMENTS\DX12FORCLASS02ARENA\DX12FORCLASS01\DEBUG\VC142.IDB
C:\USERS\JIBBITYJOBBITY\DOCUMENTS\DX12FORCLASS02ARENA\DX12FORCLASS01\DEBUG\DX12FORCLASS01.OBJ
