^C:\USERS\JIBBITYJOBBITY\DOCUMENTS\DX12FORCLASS02ARENA\DX12FORCLASS01\DEBUG\BITMAPREADER.OBJ|C:\USERS\JIBBITYJOBBITY\DOCUMENTS\DX12FORCLASS02ARENA\DX12FORCLASS01\DEBUG\DX12FORCLASS01.OBJ|C:\USERS\JIBBITYJOBBITY\DOCUMENTS\DX12FORCLASS02ARENA\DX12FORCLASS01\DEBUG\GRAPHICSDETAIL.OBJ|C:\USERS\JIBBITYJOBBITY\DOCUMENTS\DX12FORCLASS02ARENA\DX12FORCLASS01\DEBUG\OBJREADER.OBJ
C:\PROGRAM FILES (X86)\WINDOWS KITS\10\LIB\10.0.18362.0\UM\X86\D3D12.LIB
C:\PROGRAM FILES (X86)\WINDOWS KITS\10\LIB\10.0.18362.0\UM\X86\DXGI.LIB
C:\PROGRAM FILES (X86)\WINDOWS KITS\10\LIB\10.0.18362.0\UM\X86\D3DCOMPILER.LIB
C:\PROGRAM FILES (X86)\WINDOWS KITS\10\LIB\10.0.18362.0\UM\X86\KERNEL32.LIB
C:\PROGRAM FILES (X86)\WINDOWS KITS\10\LIB\10.0.18362.0\UM\X86\USER32.LIB
C:\PROGRAM FILES (X86)\WINDOWS KITS\10\LIB\10.0.18362.0\UM\X86\GDI32.LIB
C:\PROGRAM FILES (X86)\WINDOWS KITS\10\LIB\10.0.18362.0\UM\X86\WINSPOOL.LIB
C:\PROGRAM FILES (X86)\WINDOWS KITS\10\LIB\10.0.18362.0\UM\X86\COMDLG32.LIB
C:\PROGRAM FILES (X86)\WINDOWS KITS\10\LIB\10.0.18362.0\UM\X86\ADVAPI32.LIB
C:\PROGRAM FILES (X86)\WINDOWS KITS\10\LIB\10.0.18362.0\UM\X86\SHELL32.LIB
C:\PROGRAM FILES (X86)\WINDOWS KITS\10\LIB\10.0.18362.0\UM\X86\OLE32.LIB
C:\PROGRAM FILES (X86)\WINDOWS KITS\10\LIB\10.0.18362.0\UM\X86\OLEAUT32.LIB
C:\PROGRAM FILES (X86)\WINDOWS KITS\10\LIB\10.0.18362.0\UM\X86\UUID.LIB
C:\PROGRAM FILES (X86)\WINDOWS KITS\10\LIB\10.0.18362.0\UM\X86\ODBC32.LIB
C:\PROGRAM FILES (X86)\WINDOWS KITS\10\LIB\10.0.18362.0\UM\X86\ODBCCP32.LIB
C:\USERS\JIBBITYJOBBITY\DOCUMENTS\DX12FORCLASS02ARENA\DX12FORCLASS01\DEBUG\BITMAPREADER.OBJ
C:\USERS\JIBBITYJOBBITY\DOCUMENTS\DX12FORCLASS02ARENA\DX12FORCLASS01\DEBUG\DX12FORCLASS01.OBJ
C:\USERS\JIBBITYJOBBITY\DOCUMENTS\DX12FORCLASS02ARENA\DX12FORCLASS01\DEBUG\GRAPHICSDETAIL.OBJ
C:\USERS\JIBBITYJOBBITY\DOCUMENTS\DX12FORCLASS02ARENA\DX12FORCLASS01\DEBUG\OBJREADER.OBJ
C:\WINDOWS\SYSTEM32\TZRES.DLL
C:\WINDOWS\GLOBALIZATION\SORTING\SORTDEFAULT.NLS
C:\PROGRAM FILES (X86)\MICROSOFT VISUAL STUDIO\2019\COMMUNITY\VC\TOOLS\MSVC\14.25.28610\LIB\X86\MSVCPRTD.LIB
C:\PROGRAM FILES (X86)\MICROSOFT VISUAL STUDIO\2019\COMMUNITY\VC\TOOLS\MSVC\14.25.28610\LIB\X86\MSVCRTD.LIB
C:\PROGRAM FILES (X86)\MICROSOFT VISUAL STUDIO\2019\COMMUNITY\VC\TOOLS\MSVC\14.25.28610\LIB\X86\OLDNAMES.LIB
C:\PROGRAM FILES (X86)\MICROSOFT VISUAL STUDIO\2019\COMMUNITY\VC\TOOLS\MSVC\14.25.28610\LIB\X86\VCRUNTIMED.LIB
C:\PROGRAM FILES (X86)\WINDOWS KITS\10\LIB\10.0.18362.0\UCRT\X86\UCRTD.LIB
