^C:\USERS\JIBBITYJOBBITY\DOCUMENTS\DX12FORCLASS02ARENA\DX12FORCLASS01\DEBUG\BITMAPREADER.OBJ|C:\USERS\JIBBITYJOBBITY\DOCUMENTS\DX12FORCLASS02ARENA\DX12FORCLASS01\DEBUG\DX12FORCLASS01.OBJ|C:\USERS\JIBBITYJOBBITY\DOCUMENTS\DX12FORCLASS02ARENA\DX12FORCLASS01\DEBUG\GRAPHICSDETAIL.OBJ|C:\USERS\JIBBITYJOBBITY\DOCUMENTS\DX12FORCLASS02ARENA\DX12FORCLASS01\DEBUG\OBJREADER.OBJ
C:\USERS\JIBBITYJOBBITY\DOCUMENTS\DX12FORCLASS02ARENA\DEBUG\DX12FORCLASS01.EXE
C:\USERS\JIBBITYJOBBITY\DOCUMENTS\DX12FORCLASS02ARENA\DEBUG\DX12FORCLASS01.ILK
C:\USERS\JIBBITYJOBBITY\DOCUMENTS\DX12FORCLASS02ARENA\DEBUG\DX12FORCLASS01.PDB
