# Blender v2.78 (sub 0) OBJ File: ''
# www.blender.org
mtllib Arrow.mtl
o Cylinder
v 0.000000 0.000000 -2.000000
v -0.000000 1.000000 0.000000
v 0.000000 0.000000 -2.000000
v 0.269797 0.962917 0.000000
v 0.000000 0.000000 -2.000000
v 0.519584 0.854419 0.000000
v 0.000000 0.000000 -2.000000
v 0.730836 0.682553 0.000000
v 0.000000 0.000000 -2.000000
v 0.887885 0.460065 0.000000
v 0.000000 0.000000 -2.000000
v 0.979084 0.203456 0.000000
v 0.000000 0.000000 -2.000000
v 0.997669 -0.068242 0.000000
v 0.000000 0.000000 -2.000000
v 0.942261 -0.334879 0.000000
v 0.000000 0.000000 -2.000000
v 0.816970 -0.576680 0.000000
v 0.000000 0.000000 -2.000000
v 0.631088 -0.775711 0.000000
v 0.000000 0.000000 -2.000000
v 0.398401 -0.917211 0.000000
v 0.000000 0.000000 -2.000000
v 0.136167 -0.990686 0.000000
v 0.000000 0.000000 -2.000000
v -0.136166 -0.990686 0.000000
v 0.000000 0.000000 -2.000000
v -0.398401 -0.917211 0.000000
v 0.000000 0.000000 -2.000000
v -0.631087 -0.775712 0.000000
v 0.000000 0.000000 -2.000000
v -0.816970 -0.576681 0.000000
v 0.000000 0.000000 -2.000000
v -0.942261 -0.334880 0.000000
v 0.000000 0.000000 -2.000000
v -0.997669 -0.068243 0.000000
v 0.000000 0.000000 -2.000000
v -0.979084 0.203456 0.000000
v 0.000000 0.000000 -2.000000
v -0.887885 0.460065 0.000000
v 0.000000 0.000000 -2.000000
v -0.730836 0.682553 0.000000
v 0.000000 0.000000 -2.000000
v -0.519584 0.854419 0.000000
v 0.000000 0.000000 -2.000000
v -0.269797 0.962917 0.000000
v -0.000000 0.500000 0.000000
v -0.000000 0.500000 10.000000
v 0.134898 0.481459 0.000000
v 0.134898 0.481459 10.000000
v 0.259792 0.427210 0.000000
v 0.259792 0.427210 10.000000
v 0.365418 0.341277 0.000000
v 0.365418 0.341277 10.000000
v 0.443943 0.230033 0.000000
v 0.443943 0.230033 10.000000
v 0.489542 0.101728 0.000000
v 0.489542 0.101728 10.000000
v 0.498834 -0.034121 0.000000
v 0.498834 -0.034121 10.000000
v 0.471130 -0.167440 0.000000
v 0.471130 -0.167440 10.000000
v 0.408485 -0.288340 0.000000
v 0.408485 -0.288340 10.000000
v 0.315544 -0.387855 0.000000
v 0.315544 -0.387856 10.000000
v 0.199201 -0.458606 0.000000
v 0.199201 -0.458606 10.000000
v 0.068083 -0.495343 0.000000
v 0.068083 -0.495343 10.000000
v -0.068083 -0.495343 0.000000
v -0.068083 -0.495343 10.000000
v -0.199200 -0.458606 0.000000
v -0.199200 -0.458606 10.000000
v -0.315544 -0.387856 0.000000
v -0.315544 -0.387856 10.000000
v -0.408485 -0.288340 0.000000
v -0.408485 -0.288340 10.000000
v -0.471130 -0.167440 0.000000
v -0.471130 -0.167440 10.000000
v -0.498834 -0.034121 0.000000
v -0.498834 -0.034121 10.000000
v -0.489542 0.101728 0.000000
v -0.489542 0.101728 10.000000
v -0.443943 0.230032 0.000000
v -0.443943 0.230032 10.000000
v -0.365418 0.341276 0.000000
v -0.365418 0.341276 10.000000
v -0.259792 0.427210 0.000000
v -0.259792 0.427210 10.000000
v -0.134899 0.481459 0.000000
v -0.134899 0.481459 10.000000
vt 0.0000 0.0000
vt 1.0000 0.0000
vt 1.0000 1.0000
vt 0.0000 0.0000
vt 1.0000 0.0000
vt 1.0000 1.0000
vt 0.0000 0.0000
vt 1.0000 0.0000
vt 1.0000 1.0000
vt 0.0000 0.0000
vt 1.0000 0.0000
vt 1.0000 1.0000
vt 0.0000 0.0000
vt 1.0000 0.0000
vt 1.0000 1.0000
vt 0.0000 0.0000
vt 1.0000 0.0000
vt 1.0000 1.0000
vt 0.0000 0.0000
vt 1.0000 0.0000
vt 1.0000 1.0000
vt 0.0000 0.0000
vt 1.0000 0.0000
vt 1.0000 1.0000
vt 0.0000 0.0000
vt 1.0000 0.0000
vt 1.0000 1.0000
vt 0.0000 0.0000
vt 1.0000 0.0000
vt 1.0000 1.0000
vt 0.0000 0.0000
vt 1.0000 0.0000
vt 0.0000 0.0000
vt 1.0000 0.0000
vt 1.0000 1.0000
vt 0.0000 0.0000
vt 1.0000 0.0000
vt 0.0000 0.0000
vt 1.0000 0.0000
vt 1.0000 1.0000
vt 0.0000 0.0000
vt 1.0000 0.0000
vt 0.0000 0.0000
vt 1.0000 0.0000
vt 1.0000 1.0000
vt 0.0000 0.0000
vt 1.0000 0.0000
vt 1.0000 1.0000
vt 0.0000 0.0000
vt 1.0000 0.0000
vt 0.0000 0.0000
vt 1.0000 0.0000
vt 1.0000 1.0000
vt 0.0000 0.0000
vt 1.0000 0.0000
vt 1.0000 1.0000
vt 0.0000 0.0000
vt 1.0000 0.0000
vt 1.0000 1.0000
vt 0.0000 0.0000
vt 1.0000 1.0000
vt 0.0000 0.0000
vt 1.0000 0.0000
vt 1.0000 1.0000
vt 0.0000 0.0000
vt 1.0000 0.0000
vt 0.0000 0.0000
vt 1.0000 0.0000
vt 1.0000 1.0000
vt 0.0000 0.0000
vt 1.0000 0.0000
vt 1.0000 1.0000
vt 0.0000 0.0000
vt 1.0000 0.0000
vt 1.0000 1.0000
vt 0.0000 0.0000
vt 1.0000 0.0000
vt 1.0000 1.0000
vt 0.0000 0.0000
vt 1.0000 0.0000
vt 1.0000 1.0000
vt 0.0000 0.0000
vt 1.0000 0.0000
vt 1.0000 1.0000
vt 0.0000 0.0000
vt 1.0000 0.0000
vt 1.0000 1.0000
vt 0.0000 0.0000
vt 1.0000 0.0000
vt 1.0000 1.0000
vt 0.0000 0.0000
vt 1.0000 0.0000
vt 1.0000 1.0000
vt 0.0000 0.0000
vt 1.0000 0.0000
vt 0.0000 0.0000
vt 1.0000 0.0000
vt 1.0000 1.0000
vt 0.0000 0.0000
vt 1.0000 0.0000
vt 1.0000 1.0000
vt 0.0000 0.0000
vt 1.0000 0.0000
vt 1.0000 1.0000
vt 0.0000 0.0000
vt 1.0000 0.0000
vt 0.0000 0.0000
vt 1.0000 0.0000
vt 1.0000 1.0000
vt 0.0000 0.0000
vt 1.0000 0.0000
vt 1.0000 1.0000
vt 0.0000 0.0000
vt 1.0000 0.0000
vt 1.0000 1.0000
vt 0.0000 0.0000
vt 1.0000 0.0000
vt 1.0000 1.0000
vt 0.0000 0.0000
vt 1.0000 0.0000
vt 1.0000 1.0000
vt 0.0000 0.0000
vt 1.0000 0.0000
vt 1.0000 1.0000
vt 0.0000 0.0000
vt 1.0000 0.0000
vt 1.0000 1.0000
vt 1.0000 0.0000
vt 1.0000 1.0000
vt 0.0000 0.0000
vt 1.0000 0.0000
vt 1.0000 1.0000
vt 0.0000 0.0000
vt 1.0000 0.0000
vt 1.0000 1.0000
vt 1.0000 0.0000
vt 1.0000 1.0000
vt 1.0000 1.0000
vt 1.0000 1.0000
vt 1.0000 1.0000
vt 1.0000 1.0000
vt 1.0000 1.0000
vt 1.0000 1.0000
vt 1.0000 1.0000
vt 1.0000 1.0000
vt 1.0000 0.0000
vt 1.0000 1.0000
vt 1.0000 1.0000
vt 1.0000 0.0000
vt 1.0000 1.0000
vt 1.0000 1.0000
vt 1.0000 0.0000
vt 1.0000 1.0000
vt 1.0000 1.0000
vt 1.0000 1.0000
vt 1.0000 0.0000
vt 1.0000 1.0000
vt 1.0000 1.0000
vt 1.0000 1.0000
vt 1.0000 1.0000
vt 0.0000 0.0000
vt 0.0000 0.0000
vt 0.0000 0.0000
vt 0.0000 0.0000
vt 1.0000 1.0000
vt 0.0000 0.0000
vt 0.0000 0.0000
vt 0.0000 0.0000
vt 0.0000 0.0000
vt 0.0000 0.0000
vt 0.0000 0.0000
vt 1.0000 1.0000
vt 1.0000 1.0000
vt 1.0000 1.0000
vt 1.0000 1.0000
vt 1.0000 0.0000
vt 1.0000 0.0000
vt 1.0000 0.0000
vt 1.0000 0.0000
vt 1.0000 0.0000
vt 1.0000 0.0000
vt 1.0000 0.0000
vt 1.0000 0.0000
vt 1.0000 1.0000
vt 1.0000 1.0000
vt 1.0000 0.0000
vt 1.0000 0.0000
vt 1.0000 1.0000
vt 1.0000 1.0000
vt 1.0000 0.0000
vt 1.0000 0.0000
vt 1.0000 0.0000
vt 1.0000 0.0000
vt 1.0000 0.0000
vt 1.0000 0.0000
vt 1.0000 0.0000
vt 1.0000 0.0000
vt 1.0000 0.0000
vt 1.0000 1.0000
vt 1.0000 1.0000
vt 1.0000 1.0000
vt 1.0000 1.0000
vt 1.0000 1.0000
vt 1.0000 1.0000
vt 1.0000 1.0000
vt 1.0000 0.0000
vn 0.0000 0.0000 1.0000
vn 0.0000 0.9701 -0.2425
vn -0.8944 0.0000 0.4472
vn 0.0000 0.0000 -1.0000
vn 1.0000 0.0000 0.0000
vn -0.8729 -0.4364 -0.2182
vn -0.8944 -0.4472 0.0000
vn 0.9923 -0.1240 0.0000
vn -0.9923 0.1240 0.0000
vn 0.7071 -0.7071 0.0000
vn -0.7071 0.7071 0.0000
vn 0.6963 -0.6963 0.1741
vn -0.8944 0.0000 -0.4472
vn 0.0000 1.0000 0.0000
vn 0.0000 -0.8944 0.4472
vn 0.1362 0.9907 0.0000
vn 0.3984 0.9172 0.0000
vn 0.6311 0.7757 0.0000
vn 0.8170 0.5767 0.0000
vn 0.9423 0.3349 0.0000
vn 0.9977 0.0682 0.0000
vn 0.9791 -0.2035 -0.0000
vn 0.8879 -0.4601 -0.0000
vn 0.7308 -0.6826 -0.0000
vn 0.5196 -0.8544 -0.0000
vn 0.2698 -0.9629 0.0000
vn 0.0000 -1.0000 -0.0000
vn -0.2698 -0.9629 -0.0000
vn -0.5196 -0.8544 -0.0000
vn -0.7308 -0.6826 -0.0000
vn -0.8879 -0.4601 -0.0000
vn -0.9791 -0.2035 -0.0000
vn -0.9977 0.0682 0.0000
vn -0.9423 0.3349 0.0000
vn -0.8170 0.5767 0.0000
vn -0.6311 0.7757 0.0000
vn -0.3984 0.9172 0.0000
vn -0.1362 0.9907 0.0000
vn 0.1220 0.8877 -0.4439
vn 0.3570 0.8219 -0.4439
vn 0.5655 0.6951 -0.4439
vn 0.7321 0.5168 -0.4439
vn 0.8444 0.3001 -0.4439
vn 0.8940 0.0612 -0.4439
vn 0.8773 -0.1823 -0.4439
vn 0.7956 -0.4123 -0.4439
vn 0.6549 -0.6116 -0.4439
vn 0.4656 -0.7656 -0.4439
vn 0.2418 -0.8629 -0.4439
vn 0.0000 -0.8961 -0.4439
vn -0.2418 -0.8629 -0.4439
vn -0.4656 -0.7656 -0.4439
vn -0.6549 -0.6116 -0.4439
vn -0.7956 -0.4123 -0.4439
vn -0.8773 -0.1823 -0.4439
vn -0.8940 0.0612 -0.4439
vn -0.8444 0.3001 -0.4439
vn -0.7321 0.5168 -0.4439
vn -0.5655 0.6951 -0.4439
vn -0.3570 0.8219 -0.4439
vn -0.1220 0.8877 -0.4439
usemtl None
s off
f 1/1/1 4/2/1 3/3/1
f 3/4/1 6/5/1 5/6/1
f 5/7/1 8/8/1 7/9/1
f 7/10/2 10/11/2 9/12/2
f 9/13/3 12/14/3 11/15/3
f 11/16/1 14/17/1 13/18/1
f 13/19/4 16/20/4 15/21/4
f 15/22/1 18/23/1 17/24/1
f 17/25/5 20/26/5 19/27/5
f 19/28/6 22/29/6 21/30/6
f 22/31/7 23/32/7 21/30/7
f 23/33/8 26/34/8 25/35/8
f 26/36/9 27/37/9 25/35/9
f 27/38/10 30/39/10 29/40/10
f 30/41/11 31/42/11 29/40/11
f 31/43/12 34/44/12 33/45/12
f 33/46/13 36/47/13 35/48/13
f 36/49/14 37/50/14 35/48/14
f 37/51/1 40/52/1 39/53/1
f 39/54/14 42/55/14 41/56/14
f 41/57/1 44/58/1 43/59/1
f 40/60/1 16/20/1 8/61/1
f 43/62/15 46/63/15 45/64/15
f 46/65/1 1/66/1 45/64/1
f 48/67/16 49/68/16 47/69/16
f 50/70/17 51/71/17 49/72/17
f 52/73/18 53/74/18 51/75/18
f 54/76/19 55/77/19 53/78/19
f 56/79/20 57/80/20 55/81/20
f 58/82/21 59/83/21 57/84/21
f 60/85/22 61/86/22 59/87/22
f 62/88/23 63/89/23 61/90/23
f 63/91/24 66/92/24 65/93/24
f 66/94/25 67/95/25 65/93/25
f 68/96/26 69/97/26 67/98/26
f 70/99/27 71/100/27 69/101/27
f 71/102/28 74/103/28 73/104/28
f 74/105/29 75/106/29 73/104/29
f 76/107/30 77/108/30 75/109/30
f 78/110/31 79/111/31 77/112/31
f 80/113/32 81/114/32 79/115/32
f 82/116/33 83/117/33 81/118/33
f 84/119/34 85/120/34 83/121/34
f 86/122/35 87/123/35 85/124/35
f 88/125/36 89/126/36 87/127/36
f 86/122/1 70/128/1 54/129/1
f 90/130/37 91/131/37 89/132/37
f 92/133/38 47/134/38 91/135/38
f 1/1/39 2/136/39 4/137/39
f 3/4/40 4/2/40 6/138/40
f 5/7/41 6/5/41 8/61/41
f 7/10/42 8/8/42 10/139/42
f 9/13/43 10/11/43 12/140/43
f 11/16/44 12/14/44 14/141/44
f 13/19/45 14/17/45 16/142/45
f 15/22/46 16/20/46 18/143/46
f 17/25/47 18/23/47 20/144/47
f 19/28/48 20/26/48 22/145/48
f 22/31/49 24/146/49 23/147/49
f 23/33/50 24/146/50 26/148/50
f 26/36/51 28/149/51 27/150/51
f 27/38/52 28/149/52 30/151/52
f 30/41/53 32/152/53 31/153/53
f 31/43/54 32/152/54 34/154/54
f 33/46/55 34/44/55 36/155/55
f 36/49/56 38/156/56 37/157/56
f 37/51/57 38/156/57 40/158/57
f 39/54/58 40/52/58 42/159/58
f 41/57/59 42/55/59 44/160/59
f 6/161/1 4/2/1 8/61/1
f 2/162/1 46/63/1 44/160/1
f 44/163/1 42/55/1 40/158/1
f 40/60/1 38/156/1 36/155/1
f 36/49/1 34/44/1 40/158/1
f 32/164/1 30/39/1 24/165/1
f 28/166/1 26/34/1 24/165/1
f 24/167/1 22/29/1 16/142/1
f 20/168/1 18/23/1 16/142/1
f 16/169/1 14/17/1 12/140/1
f 12/170/1 10/11/1 8/61/1
f 8/171/1 4/2/1 2/172/1
f 2/162/1 44/58/1 40/158/1
f 40/60/1 34/44/1 32/173/1
f 30/41/1 28/149/1 24/165/1
f 22/31/1 20/26/1 16/142/1
f 16/169/1 12/14/1 8/61/1
f 8/171/1 2/136/1 40/158/1
f 40/60/1 32/152/1 24/165/1
f 24/167/1 16/20/1 40/158/1
f 43/62/60 44/58/60 46/174/60
f 46/65/61 2/136/61 1/175/61
f 48/67/16 50/176/16 49/72/16
f 50/70/17 52/177/17 51/75/17
f 52/73/18 54/178/18 53/78/18
f 54/76/19 56/179/19 55/81/19
f 56/79/20 58/180/20 57/84/20
f 58/82/21 60/181/21 59/87/21
f 60/85/22 62/182/22 61/90/22
f 62/88/23 64/183/23 63/184/23
f 63/91/24 64/183/24 66/185/24
f 66/94/25 68/186/25 67/98/25
f 68/96/26 70/128/26 69/101/26
f 70/99/27 72/187/27 71/188/27
f 71/102/28 72/187/28 74/189/28
f 74/105/29 76/190/29 75/109/29
f 76/107/30 78/191/30 77/112/30
f 78/110/31 80/192/31 79/115/31
f 80/113/32 82/193/32 81/118/32
f 82/116/33 84/194/33 83/121/33
f 84/119/34 86/195/34 85/124/34
f 86/122/35 88/196/35 87/127/35
f 88/125/36 90/197/36 89/132/36
f 52/73/1 50/176/1 54/129/1
f 48/67/1 92/198/1 86/199/1
f 90/130/1 88/196/1 86/199/1
f 86/122/1 84/194/1 82/200/1
f 82/116/1 80/192/1 86/199/1
f 78/110/1 76/190/1 74/189/1
f 74/105/1 72/187/1 78/201/1
f 70/99/1 68/186/1 66/185/1
f 66/94/1 64/183/1 62/202/1
f 62/88/1 60/181/1 58/203/1
f 58/82/1 56/179/1 62/202/1
f 54/76/1 50/176/1 48/204/1
f 92/133/1 90/197/1 86/199/1
f 86/122/1 80/192/1 78/201/1
f 78/110/1 72/187/1 70/205/1
f 70/99/1 66/92/1 54/129/1
f 62/88/1 56/179/1 54/129/1
f 54/76/1 48/206/1 86/199/1
f 86/122/1 78/191/1 70/205/1
f 66/94/1 62/182/1 54/129/1
f 90/130/37 92/198/37 91/135/37
f 92/133/38 48/206/38 47/69/38
