﻿  BitmapReader.cpp
C:\Users\JibbityJobbity\Desktop\DX12ForClass02Arena\DX12ForClass01\BitmapReader.cpp(100,1): fatal error C1010: unexpected end of file while looking for precompiled header. Did you forget to add '#include "stdafx.h"' to your source?
  DX12ForClass01.cpp
C:\Users\JibbityJobbity\Desktop\DX12ForClass02Arena\DX12ForClass01\DX12ForClass01.cpp(1031,1): fatal error C1010: unexpected end of file while looking for precompiled header. Did you forget to add '#include "stdafx.h"' to your source?
  GraphicsDetail.cpp
C:\Users\JibbityJobbity\Desktop\DX12ForClass02Arena\DX12ForClass01\GraphicsDetail.cpp(1,1): fatal error C1010: unexpected end of file while looking for precompiled header. Did you forget to add '#include "stdafx.h"' to your source?
  ObjReader.cpp
C:\Users\JibbityJobbity\Desktop\DX12ForClass02Arena\DX12ForClass01\ObjReader.cpp(322,1): fatal error C1010: unexpected end of file while looking for precompiled header. Did you forget to add '#include "stdafx.h"' to your source?
